[
  {
    "method": "GET",
    "path": "/",
    "controller": "MiniWebShop\\Controller\\SiteController",
    "action": "indexAction"
  },
  {
    "method": "GET",
    "path": "/page/(int:page)",
    "controller": "MiniWebShop/Controller/SiteController",
    "action": "listAction"
  },
  {
    "method": "GET",
    "path": "/product/(int:id)",
    "controller": "MiniWebShop/Controller/SiteController",
    "action": "detailsAction"
  },
  {
    "method": "GET",
    "path": "/admin",
    "controller": "MiniWebShop\\Controller\\AdminController",
    "action": "indexAction"
  },
  {
    "method": "GET",
    "path": "/admin/product/list",
    "controller": "\\MiniWebShop\\Controller\\AdminController",
    "action": "listAction"
  },
  {
    "method": "GET",
    "path": "/admin/product/create",
    "controller": "\\MiniWebShop\\Controller\\AdminController",
    "action": "createAction"
  },
  {
    "method": "POST",
    "path": "/admin/product/create",
    "controller": "\\MiniWebShop\\Controller\\AdminController",
    "action": "createSubmitAction"
  },
  {
    "method": "GET",
    "path": "/admin/product/update/(int:id)",
    "controller": "\\MiniWebShop\\Controller\\AdminController",
    "action": "updateAction"
  },
  {
    "method": "POST",
    "path": "/admin/product/update/(int:id)",
    "controller": "\\MiniWebShop\\Controller\\AdminController",
    "action": "updateSubmitAction"
  },
  {
    "method": "GET",
    "path": "/admin/product/delete/(int:id)",
    "controller": "\\MiniWebShop\\Controller\\AdminController",
    "action": "deleteAction"
  }
]